Análises Econométricas
…
<div class="my-header">Fonte: <a href="https://curso-r.github.io/main-r4ds-1/slides/04-manipulacao.html">Curso-R</a></div>

---

### Selecionando Colunas:  &nbsp; `select()`

O primeiro argumento da função é a base de dados e os demais argumentos são os nomes das colunas que se quer selecionar. Repare que não se coloca o nome da coluna entre aspas.

```r
select(pinguins, especie)
```

```
## # A tibble: 344 x 1
##    especie                 
##    <chr>                   
##  1 "Pinguim-de-ad\u00e9lia"
##  2 "Pinguim-de-ad\u00e9lia"
##  3 "Pinguim-de-ad\u00e9lia"
##  4 "Pinguim-de-ad\u00e9lia"
##  5 "Pinguim-de-ad\u00e9lia"
##  6 "Pinguim-de-ad\u00e9lia"
##  7 "Pinguim-de-ad\u00e9lia"
##  8 "Pinguim-de-ad\u00e9lia"
##  9 "Pinguim-de-ad\u00e9lia"
## 10 "Pinguim-de-ad\u00e9lia"
## # i 334 more rows
```

<div class="my-header">Fonte: <a href="https://curso-r.github.io/main-r4ds-1/slides/04-manipulacao.html">Curso-R</a></div>

---

### Selecionando Colunas:  &nbsp; `select()`

Também é possível selecionar várias colunas.

```r
select(pinguins, especie, sexo, massa_corporal)
```

```
## # A tibble: 344 x 3
##    especie                  sexo         massa_corporal
##    <chr>                    <chr>                 <dbl>
##  1 "Pinguim-de-ad\u00e9lia" "macho"                3750
##  2 "Pinguim-de-ad\u00e9lia" "f\u00eamea"           3800
##  3 "Pinguim-de-ad\u00e9lia" "f\u00eamea"           3250
##  4 "Pinguim-de-ad\u00e9lia"  <NA>                    NA
##  5 "Pinguim-de-ad\u00e9lia" "f\u00eamea"           3450
##  6 "Pinguim-de-ad\u00e9lia" "macho"                3650
##  7 "Pinguim-de-ad\u00e9lia" "f\u00eamea"           3625
##  8 "Pinguim-de-ad\u00e9lia" "macho"                4675
##  9 "Pinguim-de-ad\u00e9lia"  <NA>                  3475
## 10 "Pinguim-de-ad\u00e9lia"  <NA>                  4250
## # i 334 more rows
```

<div class="my-header">Fonte: <a href="https://curso-r.github.io/main-r4ds-1/slides/04-manipulacao.html">Curso-R</a></div>

---

### Selecionando Colunas:  &nbsp; `select()`

O operador `:` é muito útil para selecionar colunas consecutivas.

```r
select(pinguins, ilha:massa_corporal)
```

```
## # A tibble: 344 x 5
##    ilha      comprimento_bico profundidade_bico comprimento_nadadeira massa_corporal
##    <chr>                <dbl>             <dbl>                 <dbl>          <dbl>
##  1 Torgersen             39.1              18.7                   181           3750
##  2 Torgersen             39.5              17.4                   186           3800
##  3 Torgersen             40.3              18                     195           3250
##  4 Torgersen             NA                NA                      NA             NA
##  5 Torgersen             36.7              19.3                   193           3450
##  6 Torgersen             39.3              20.6                   190           3650
##  7 Torgersen             38.9              17.8                   181           3625
##  8 Torgersen             39.2              19.6                   195           4675
##  9 Torgersen             34.1              18.1                   193           3475
## 10 Torgersen             42                20.2                   190           4250
## # i 334 more rows
```
…
### Selecionando Colunas:  &nbsp; `select()`

O `dplyr` possui um conjunto de funções auxiliares úteis para a seleção de colunas.

- `starts_with()`: para colunas que começam com um texto padrão <br>
- `ends_with()`: para colunas que terminam com um texto padrão <br>
- `contains()`: para colunas que contêm um texto padrão <br>

```r
select(pinguins, ends_with("bico"))
```

```
## # A tibble: 344 x 2
##    comprimento_bico profundidade_bico
##               <dbl>             <dbl>
##  1             39.1              18.7
##  2             39.5              17.4
##  3             40.3              18  
##  4             NA                NA  
##  5             36.7              19.3
##  6             39.3              20.6
##  7             38.9              17.8
##  8             39.2              19.6
##  9             34.1              18.1
## 10             42                20.2
## # i 334 more rows
```

<div class="my-header">Fonte: <a href="https://curso-r.github.io/main-r4ds-1/slides/04-manipulacao.html">Curso-R</a></div>

---

### Selecionando Colunas:  &nbsp; `select()`

A(s) coluna(s) pode(m) ser excluída(s) inserindo o caracter `-` na frente da(s) coluna(s).

```r
select(pinguins, -ano)
```

```
## # A tibble: 344 x 7
##    especie                  ilha   comprimento_bico profundidade_bico comprimento_nadadeira massa_corporal sexo 
##    <chr>                    <chr>             <dbl>             <dbl>                 <dbl>          <dbl> <chr>
##  1 "Pinguim-de-ad\u00e9lia" Torge~             39.1              18.7                   181           3750 "mac~
##  2 "Pinguim-de-ad\u00e9lia" Torge~             39.5              17.4                   186           3800 "f\u~
##  3 "Pinguim-de-ad\u00e9lia" Torge~             40.3              18                     195           3250 "f\u~
##  4 "Pinguim-de-ad\u00e9lia" Torge~             NA                NA                      NA             NA  <NA>
##  5 "Pinguim-de-ad\u00e9lia" Torge~             36.7              19.3                   193           3450 "f\u~
##  6 "Pinguim-de-ad\u00e9lia" Torge~             39.3              20.6                   190           3650 "mac~
##  7 "Pinguim-de-ad\u00e9lia" Torge~             38.9              17.8                   181           3625 "f\u~
##  8 "Pinguim-de-ad\u00e9lia" Torge~             39.2              19.6                   195           4675 "mac~
##  9 "Pinguim-de-ad\u00e9lia" Torge~             34.1              18.1                   193           3475  <NA>
## 10 "Pinguim-de-ad\u00e9lia" Torge~             42                20.2                   190           4250  <NA>
## # i 334 more rows
```

<div class="my-header">Fonte: <a href="https://curso-r.github.io/main-r4ds-1/slides/04-manipulacao.html">Curso-R</a></div>

---

### Selecionando Colunas:  &nbsp; `select()`

A(s) coluna(s) pode(m) ser excluída(s) inserindo o caracter `-` na frente de vetor de colunas.

```r
select(pinguins, -c(ano, sexo))
```

```
## # A tibble: 344 x 6
##    especie                  ilha      comprimento_bico profundidade_bico comprimento_nadadeira massa_corporal
##    <chr>                    <chr>                <dbl>             <dbl>                 <dbl>          <dbl>
##  1 "Pinguim-de-ad\u00e9lia" Torgersen             39.1              18.7                   181           3750
##  2 "Pinguim-de-ad\u00e9lia" Torgersen             39.5              17.4                   186           3800
##  3 "Pinguim-de-ad\u00e9lia" Torgersen             40.3              18                     195           3250
##  4 "Pinguim-de-ad\u00e9lia" Torgersen             NA                NA                      NA             NA
##  5 "Pinguim-de-ad\u00e9lia" Torgersen             36.7              19.3                   193           3450
##  6 "Pinguim-de-ad\u00e9lia" Torgersen             39.3              20.6                   190           3650
##  7 "Pinguim-de-ad\u00e9lia" Torgersen             38.9              17.8                   181           3625
##  8 "Pinguim-de-ad\u00e9lia" Torgersen             39.2              19.6                   195           4675
##  9 "Pinguim-de-ad\u00e9lia" Torgersen             34.1              18.1                   193           3475
## 10 "Pinguim-de-ad\u00e9lia" Torgersen             42                20.2                   190           4250
## # i 334 more rows
```

<div class="my-header">Fonte: <a href="https://curso-r.github.io/main-r4ds-1/slides/04-manipulacao.html">Curso-R</a></div>

---

### Ordenando linhas: &nbsp; `arrange()`

Serve para ordenar as linhas. O primeiro argumento é a base de dados, e os demais argumentos são as colunas pelas quais serão ordenadas as linhas. No próximo exemplo, serão ordenadas as linhas da base por ordem crescente da massa corporal dos pinguins.

```r
arrange(pinguins, massa_corporal)
```

```
## # A tibble: 344 x 8
##    especie             ilha  comprimento_bico profundidade_bico comprimento_nadadeira massa_corporal sexo    ano
##    <chr>               <chr>            <dbl>             <dbl>                 <dbl>          <dbl> <chr> <dbl>
##  1 "Pinguim-de-barbic~ Dream             46.9              16.6                   192           2700 "f\u~  2008
##  2 "Pinguim-de-ad\u00~ Bisc~             36.5              16.6                   181           2850 "f\u~  2008
##  3 "Pinguim-de-ad\u00~ Bisc~             36.4              17.1                   184           2850 "f\u~  2008
##  4 "Pinguim-de-ad\u00~ Bisc~             34.5              18.1                   187           2900 "f\u~  2008
##  5 "Pinguim-de-ad\u00~ Dream             33.1              16.1                   178           2900 "f\u~  2008
##  6 "Pinguim-de-ad\u00~ Torg~             38.6              17                     188           2900 "f\u~  2009
##  7 "Pinguim-de-barbic~ Dream             43.2              16.6                   187           2900 "f\u~  2007
##  8 "Pinguim-de-ad\u00~ Bisc~             37.9              18.6                   193           2925 "f\u~  2009
##  9 "Pinguim-de-ad\u00~ Dream             37.5              18.9                   179           2975  <NA>  2007
## 10 "Pinguim-de-ad\u00~ Dream             37                16.9                   185           3000 "f\u~  2007
## # i 334 more rows
```

<div class="my-header">Fonte: <a href="https://curso-r.github.io/main-r4ds-1/slides/04-manipulacao.html">Curso-R</a></div>

---

### Ordenando linhas: &nbsp; `arrange()`

É possível ordenar de forma decrescente usando a função `desc()` como argumento da função `arrange()`. Neste exemplo, serão ordenadas as linhas da base por ordem decrescente da massa corporal dos pinguins.

```r
arrange(pinguins, desc(massa_corporal))
```

```
## # A tibble: 344 x 8
##    especie        ilha   comprimento_bico profundidade_bico comprimento_nadadeira massa_corporal sexo    ano
##    <chr>          <chr>             <dbl>             <dbl>                 <dbl>          <dbl> <chr> <dbl>
##  1 Pinguim-gentoo Biscoe             49.2              15.2                   221           6300 macho  2007
##  2 Pinguim-gentoo Biscoe             59.6              17                     230           6050 macho  2007
##  3 Pinguim-gentoo Biscoe             51.1              16.3                   220           6000 macho  2008
##  4 Pinguim-gentoo Biscoe             48.8              16.2                   222           6000 macho  2009
##  5 Pinguim-gentoo Biscoe             45.2              16.4                   223           5950 macho  2008
##  6 Pinguim-gentoo Biscoe             49.8              15.9                   229           5950 macho  2009
##  7 Pinguim-gentoo Biscoe             48.4              14.6                   213           5850 macho  2007
##  8 Pinguim-gentoo Biscoe             49.3              15.7                   217           5850 macho  2007
##  9 Pinguim-gentoo Biscoe             55.1              16                     230           5850 macho  2009
## 10 Pinguim-gentoo Biscoe             49.5              16.2                   229           5800 macho  2008
## # i 334 more rows
```

<div class="my-header">Fonte: <a href="https://curso-r.github.io/main-r4ds-1/slides/04-manipulacao.html">Curso-R</a></div>

---

### Ordenando linhas: &nbsp; `arrange()`

Também é possível ordenar segundo duas ou mais colunas. Por exemplo, as linhas da base serão ordenadas de forma decrescente para o comprimento do bico e crescente para a profundidade do bico dos pinguins.

```r
arrange(pinguins, desc(comprimento_bico), profundidade_bico)
```

```
## # A tibble: 344 x 8
##    especie             ilha  comprimento_bico profundidade_bico comprimento_nadadeira massa_corporal sexo    ano
##    <chr>               <chr>            <dbl>             <dbl>                 <dbl>          <dbl> <chr> <dbl>
##  1 Pinguim-gentoo      Bisc~             59.6              17                     230           6050 "mac~  2007
##  2 Pinguim-de-barbicha Dream             58                17.8                   181           3700 "f\u~  2007
##  3 Pinguim-gentoo      Bisc~             55.9              17                     228           5600 "mac~  2009
##  4 Pinguim-de-barbicha Dream             55.8              19.8                   207           4000 "mac~  2009
##  5 Pinguim-gentoo      Bisc~             55.1              16                     230           5850 "mac~  2009
##  6 Pinguim-gentoo      Bisc~             54.3              15.7                   231           5650 "mac~  2008
##  7 Pinguim-de-barbicha Dream             54.2              20.8                   201           4300 "mac~  2008
##  8 Pinguim-de-barbicha Dream             53.5              19.9                   205           4500 "mac~  2008
##  9 Pinguim-gentoo      Bisc~             53.4              15.8                   219           5500 "mac~  2009
## 10 Pinguim-de-barbicha Dream             52.8              20                     205           4550 "mac~  2008
## # i 334 more rows
```
…
---

### Filtrando linhas: &nbsp; `filter()`

Filtra valores (linhas) de uma coluna da base.

Foram filtradas as linhas que possuem comprimento da nadadeira superior a 140 mm.

```r
filter(pinguins, comprimento_nadadeira > 140)
```

```
## # A tibble: 342 x 8
##    especie             ilha  comprimento_bico profundidade_bico comprimento_nadadeira massa_corporal sexo    ano
##    <chr>               <chr>            <dbl>             <dbl>                 <dbl>          <dbl> <chr> <dbl>
##  1 "Pinguim-de-ad\u00~ Torg~             39.1              18.7                   181           3750 "mac~  2007
##  2 "Pinguim-de-ad\u00~ Torg~             39.5              17.4                   186           3800 "f\u~  2007
##  3 "Pinguim-de-ad\u00~ Torg~             40.3              18                     195           3250 "f\u~  2007
##  4 "Pinguim-de-ad\u00~ Torg~             36.7              19.3                   193           3450 "f\u~  2007
##  5 "Pinguim-de-ad\u00~ Torg~             39.3              20.6                   190           3650 "mac~  2007
##  6 "Pinguim-de-ad\u00~ Torg~             38.9              17.8                   181           3625 "f\u~  2007
##  7 "Pinguim-de-ad\u00~ Torg~             39.2              19.6                   195           4675 "mac~  2007
##  8 "Pinguim-de-ad\u00~ Torg~             34.1              18.1                   193           3475  <NA>  2007
##  9 "Pinguim-de-ad\u00~ Torg~             42                20.2                   190           4250  <NA>  2007
## 10 "Pinguim-de-ad\u00~ Torg~             37.8              17.1                   186           3300  <NA>  2007
## # i 332 more rows
```
…
---

### Filtrando linhas: &nbsp; `filter()`

É possível selecionar apenas as colunas da espécie e do comprimento da nadadeira, filtrando apenas aqueles com comprimento de nadadeira superior a 140 mm.

```r
pinguins %>% 
  select(especie, comprimento_nadadeira) %>% 
  filter(comprimento_nadadeira > 140)
```

```
## # A tibble: 342 x 2
##    especie                  comprimento_nadadeira
##    <chr>                                    <dbl>
##  1 "Pinguim-de-ad\u00e9lia"                   181
##  2 "Pinguim-de-ad\u00e9lia"                   186
##  3 "Pinguim-de-ad\u00e9lia"                   195
##  4 "Pinguim-de-ad\u00e9lia"                   193
##  5 "Pinguim-de-ad\u00e9lia"                   190
##  6 "Pinguim-de-ad\u00e9lia"                   181
##  7 "Pinguim-de-ad\u00e9lia"                   195
##  8 "Pinguim-de-ad\u00e9lia"                   193
##  9 "Pinguim-de-ad\u00e9lia"                   190
## 10 "Pinguim-de-ad\u00e9lia"                   186
## # i 332 more rows
```
<div class="my-header">Fonte: <a href="https://curso-r.github.io/main-r4ds-1/slides/04-manipulacao.html">Curso-R</a></div>

---

### Filtrando linhas: &nbsp; `filter()`

Estendendo o filtro para duas ou mais colunas. Para isso, cada operação é separada por uma vírgula. O código abaixo retorna uma tabela com todos os pinguins da ilha de Torgersen com profundidade de bico maior que 15 (mm).

```r
pinguins %>% 
  filter(ilha == "Torgersen", profundidade_bico > 15)
```

```
## # A tibble: 51 x 8
##    especie             ilha  comprimento_bico profundidade_bico comprimento_nadadeira massa_corporal sexo    ano
##    <chr>               <chr>            <dbl>             <dbl>                 <dbl>          <dbl> <chr> <dbl>
##  1 "Pinguim-de-ad\u00~ Torg~             39.1              18.7                   181           3750 "mac~  2007
##  2 "Pinguim-de-ad\u00~ Torg~             39.5              17.4                   186           3800 "f\u~  2007
##  3 "Pinguim-de-ad\u00~ Torg~             40.3              18                     195           3250 "f\u~  2007
##  4 "Pinguim-de-ad\u00~ Torg~             36.7              19.3                   193           3450 "f\u~  2007
##  5 "Pinguim-de-ad\u00~ Torg~             39.3              20.6                   190           3650 "mac~  2007
##  6 "Pinguim-de-ad\u00~ Torg~             38.9              17.8                   181           3625 "f\u~  2007
##  7 "Pinguim-de-ad\u00~ Torg~             39.2              19.6                   195           4675 "mac~  2007
##  8 "Pinguim-de-ad\u00~ Torg~             34.1              18.1                   193           3475  <NA>  2007
##  9 "Pinguim-de-ad\u00~ Torg~             42                20.2                   190           4250  <NA>  2007
## 10 "Pinguim-de-ad\u00~ Torg~             37.8              17.1                   186           3300  <NA>  2007
## # i 41 more rows
```
<div class="my-header">Fonte: <a href="https://curso-r.github.io/main-r4ds-1/slides/04-manipulacao.html">Curso-R</a></div>

---

### Filtrando linhas: &nbsp; `filter()`

Também é possível realizar operações com as colunas da base dentro da função `filter()`. No exemplo abaixo devolve uma tabela apenas com os pinguins que possuem massa corporal maior que a média da massa corporal.

```r
pinguins %>% 
  filter(massa_corporal > mean(massa_corporal, na.rm = TRUE))
```

```
## # A tibble: 149 x 8
##    especie             ilha  comprimento_bico profundidade_bico comprimento_nadadeira massa_corporal sexo    ano
##    <chr>               <chr>            <dbl>             <dbl>                 <dbl>          <dbl> <chr> <dbl>
##  1 "Pinguim-de-ad\u00~ Torg~             39.2              19.6                   195           4675 macho  2007
##  2 "Pinguim-de-ad\u00~ Torg~             42                20.2                   190           4250 <NA>   2007
##  3 "Pinguim-de-ad\u00~ Torg~             34.6              21.1                   198           4400 macho  2007
##  4 "Pinguim-de-ad\u00~ Torg~             42.5              20.7                   197           4500 macho  2007
##  5 "Pinguim-de-ad\u00~ Dream             39.8              19.1                   184           4650 macho  2007
##  6 "Pinguim-de-ad\u00~ Dream             44.1              19.7                   196           4400 macho  2007
##  7 "Pinguim-de-ad\u00~ Dream             39.6              18.8                   190           4600 macho  2007
##  8 "Pinguim-de-ad\u00~ Bisc~             40.1              18.9                   188           4300 macho  2008
##  9 "Pinguim-de-ad\u00~ Bisc~             41.3              21.1                   195           4400 macho  2008
## 10 "Pinguim-de-ad\u00~ Torg~             41.8              19.4                   198           4450 macho  2008
## # i 139 more rows
```
…
