Análises Econométricas
…
---

### Tibbles

**Exemplo: base `mtcars` como *tibble*:**

```r
tibble::as_tibble(mtcars)
```

```
## # A tibble: 32 x 11
##      mpg   cyl  disp    hp  drat    wt  qsec    vs    am  gear  carb
##    <dbl> <dbl> <dbl> <dbl> <dbl> <dbl> <dbl> <dbl> <dbl> <dbl> <dbl>
##  1  21       6  160    110  3.9   2.62  16.5     0     1     4     4
##  2  21       6  160    110  3.9   2.88  17.0     0     1     4     4
##  3  22.8     4  108     93  3.85  2.32  18.6     1     1     4     1
##  4  21.4     6  258    110  3.08  3.22  19.4     1     0     3     1
##  5  18.7     8  360    175  3.15  3.44  17.0     0     0     3     2
##  6  18.1     6  225    105  2.76  3.46  20.2     1     0     3     1
##  7  14.3     8  360    245  3.21  3.57  15.8     0     0     3     4
##  8  24.4     4  147.    62  3.69  3.19  20       1     0     4     2
##  9  22.8     4  141.    95  3.92  3.15  22.9     1     0     4     2
## 10  19.2     6  168.   123  3.92  3.44  18.3     1     0     4     4
## # i 22 more rows
```
…
---

### Tibbles

**Exemplo: base `mtcars` como *tibble*:**

Uma maneira de adicionar a coluna com os modelos dos veículos é adicionar o argumento `rownames = "nome_da_coluna"` na função `as_tibble`. Assim, a nova `tibble` possuirá 12 colunas, uma a mais se comparada com a anterior.

```r
tibble::as_tibble(mtcars, rownames = "cars")
```

```
## # A tibble: 32 x 12
##    cars                mpg   cyl  disp    hp  drat    wt  qsec    vs    am  gear  carb
##    <chr>             <dbl> <dbl> <dbl> <dbl> <dbl> <dbl> <dbl> <dbl> <dbl> <dbl> <dbl>
##  1 Mazda RX4          21       6  160    110  3.9   2.62  16.5     0     1     4     4
##  2 Mazda RX4 Wag      21       6  160    110  3.9   2.88  17.0     0     1     4     4
##  3 Datsun 710         22.8     4  108     93  3.85  2.32  18.6     1     1     4     1
##  4 Hornet 4 Drive     21.4     6  258    110  3.08  3.22  19.4     1     0     3     1
##  5 Hornet Sportabout  18.7     8  360    175  3.15  3.44  17.0     0     0     3     2
##  6 Valiant            18.1     6  225    105  2.76  3.46  20.2     1     0     3     1
##  7 Duster 360         14.3     8  360    245  3.21  3.57  15.8     0     0     3     4
##  8 Merc 240D          24.4     4  147.    62  3.69  3.19  20       1     0     4     2
##  9 Merc 230           22.8     4  141.    95  3.92  3.15  22.9     1     0     4     2
## 10 Merc 280           19.2     6  168.   123  3.92  3.44  18.3     1     0     4     4
## # i 22 more rows
```
…
<div class="my-header">Fonte: <a href="https://curso-r.github.io/main-r4ds-1/slides/03-importacao.html">Curso-R</a></div>

---

### Importação de arquivos

O objeto resultante será uma `tibble`:

```r
pinguins_csv
```

```
## # A tibble: 344 x 8
##    especie             ilha  comprimento_bico profundidade_bico comprimento_nadadeira massa_corporal sexo    ano
##    <chr>               <chr>            <dbl>             <dbl>                 <dbl>          <dbl> <chr> <dbl>
##  1 "Pinguim-de-ad\u00~ Torg~             39.1              18.7                   181           3750 "mac~  2007
##  2 "Pinguim-de-ad\u00~ Torg~             39.5              17.4                   186           3800 "f\u~  2007
##  3 "Pinguim-de-ad\u00~ Torg~             40.3              18                     195           3250 "f\u~  2007
##  4 "Pinguim-de-ad\u00~ Torg~             NA                NA                      NA             NA  <NA>  2007
##  5 "Pinguim-de-ad\u00~ Torg~             36.7              19.3                   193           3450 "f\u~  2007
##  6 "Pinguim-de-ad\u00~ Torg~             39.3              20.6                   190           3650 "mac~  2007
##  7 "Pinguim-de-ad\u00~ Torg~             38.9              17.8                   181           3625 "f\u~  2007
##  8 "Pinguim-de-ad\u00~ Torg~             39.2              19.6                   195           4675 "mac~  2007
##  9 "Pinguim-de-ad\u00~ Torg~             34.1              18.1                   193           3475  <NA>  2007
## 10 "Pinguim-de-ad\u00~ Torg~             42                20.2                   190           4250  <NA>  2007
## # i 334 more rows
```
…
