Análises Econométricas
…
<div class="panelset">
<div class="panel">
<div class="panel-name">Ideb (F)</div>
.tiny[

```r
ideb_fundamental <- ideb_fundamental %>% 
  select(id_municipio, tx_aprov, ideb)

ideb_fundamental
```

```
## # A tibble: 5,569 × 3
##    id_municipio tx_aprov  ideb
##    <chr>           <dbl> <dbl>
##  1 1100015          94.3  4.75
##  2 1100023          94.2  4.98
##  3 1100049          99.5  5.32
##  4 1100064          99.3  5.65
##  5 1100072          98.6  5.32
##  6 1100080          94.3  4.78
##  7 1100098          98.3  5.24
##  8 1100106          96.7  4.76
##  9 1100122          98.4  5.28
## 10 1100148         100    5.74
## # ℹ 5,559 more rows
```
]
</div>
<div class="panel">
<div class="panel-name">Ideb (M)</div>

```r
ideb_medio <- ideb_medio %>% 
  select(id_municipio, tx_aprov, ideb)

ideb_medio
```

```
## # A tibble: 5,557 × 3
##    id_municipio tx_aprov  ideb
##    <chr>           <dbl> <dbl>
##  1 1100304          75.6  3.55
##  2 1200435          90    2.9 
##  3 1300060          89.4  3   
##  4 1300201          72.7  2.2 
##  5 1300508          87.1  3.1 
##  6 1300607          87.4  2.8 
##  7 1300680          87.5  3.1 
##  8 1300805          87.2  3.1 
##  9 1300839          94.9  3.1 
## 10 1301407          88.6  3.9 
## # ℹ 5,547 more rows
```

</div>
<div class="panel">
<div class="panel-name">Indicador (F)</div>

```r
indicadores_fundamental <- indicadores_fundamental %>% 
  select(id_municipio, tx_aband, hrs_aula, tdi)

indicadores_fundamental
```

```
## # A tibble: 5,570 × 4
##    id_municipio tx_aband hrs_aula   tdi
##    <chr>           <dbl>    <dbl> <dbl>
##  1 1100015         0.167     4    21.9 
##  2 1100023         1.63      4.41 13.6 
##  3 1100031         0.355     4    10.7 
##  4 1100049         0.493     4.49  9.31
##  5 1100056         0.22      4.06  7.52
##  6 1100064         0         4.05  7.15
##  7 1100072         0         4.04 13.0 
##  8 1100080         2.87      4.2  23.2 
##  9 1100098         1.97      4.24 14.8 
## 10 1100106         2.28      4.14 27.2 
## # ℹ 5,560 more rows
```

</div>
<div class="panel">
<div class="panel-name">Indicador (M)</div>

```r
indicadores_medio <- indicadores_medio %>% 
  select(id_municipio, tx_aband, hrs_aula, tdi)

indicadores_medio
```

```
## # A tibble: 5,570 × 4
##    id_municipio tx_aband hrs_aula   tdi
##    <chr>           <dbl>    <dbl> <dbl>
##  1 1100015         1         4.77  44.5
##  2 1100023         5.13      6.47  25.7
##  3 1100031         3.8       4     19.3
##  4 1100049         4.32      6.86  28.2
##  5 1100056         9.51      6.89  24.3
##  6 1100064         0.98      7.04  16.5
##  7 1100072         0.8       4     21.9
##  8 1100080         0.133     4.5   34.3
##  9 1100098         0         5.66  31.3
## 10 1100106         8.68      6.18  46.2
## # ℹ 5,560 more rows
```
</div>
<div class="panel">
<div class="panel-name">PIB</div>
.tiny[

```r
pib_pc <- pib_pc %>% 
  mutate(pib_pc = round(pib/populacao, 2)) %>%  # cria a coluna pib_pc
  select(id_municipio, pib_pc)  
  
pib_pc
```

```
## # A tibble: 5,570 × 2
##    id_municipio pib_pc
##    <chr>         <dbl>
##  1 1100015      25091.
##  2 1100023      25730.
##  3 1100031      32226.
##  4 1100049      29331.
##  5 1100056      37069.
##  6 1100064      23606.
##  7 1100072      37172.
##  8 1100080      13936.
##  9 1100098      20380.
## 10 1100106      21148.
## # ℹ 5,560 more rows
```
…
### Juntando as bases de dados: Fundamental

<div class="panelset">
<div class="panel">
<div class="panel-name">left-join seguidos</div>

```r
left_join(
  ideb_fundamental, indicadores_fundamental, by = "id_municipio"
) %>% 
  left_join(pib_pc, by = "id_municipio")
```

```
## # A tibble: 5,569 × 7
##    id_municipio tx_aprov  ideb tx_aband hrs_aula   tdi pib_pc
##    <chr>           <dbl> <dbl>    <dbl>    <dbl> <dbl>  <dbl>
##  1 1100015          94.3  4.75    0.167     4    21.9  25091.
##  2 1100023          94.2  4.98    1.63      4.41 13.6  25730.
##  3 1100049          99.5  5.32    0.493     4.49  9.31 29331.
##  4 1100064          99.3  5.65    0         4.05  7.15 23606.
##  5 1100072          98.6  5.32    0         4.04 13.0  37172.
##  6 1100080          94.3  4.78    2.87      4.2  23.2  13936.
##  7 1100098          98.3  5.24    1.97      4.24 14.8  20380.
##  8 1100106          96.7  4.76    2.28      4.14 27.2  21148.
##  9 1100122          98.4  5.28    1.9       4.53 16.7  31210.
## 10 1100148         100    5.74    0         4.27  6.42 19687.
## # ℹ 5,559 more rows
```

</div>
<div class="panel">
<div class="panel-name">reduce</div>

```r
# PROGRAMAÇÃO FUNCIONAL - MAIS INDICADO! 
fund <- list(ideb_fundamental, indicadores_fundamental, pib_pc) %>% 
  reduce(left_join)

fund
```

```
## # A tibble: 5,569 × 7
##    id_municipio tx_aprov  ideb tx_aband hrs_aula   tdi pib_pc
##    <chr>           <dbl> <dbl>    <dbl>    <dbl> <dbl>  <dbl>
##  1 1100015          94.3  4.75    0.167     4    21.9  25091.
##  2 1100023          94.2  4.98    1.63      4.41 13.6  25730.
##  3 1100049          99.5  5.32    0.493     4.49  9.31 29331.
##  4 1100064          99.3  5.65    0         4.05  7.15 23606.
##  5 1100072          98.6  5.32    0         4.04 13.0  37172.
##  6 1100080          94.3  4.78    2.87      4.2  23.2  13936.
##  7 1100098          98.3  5.24    1.97      4.24 14.8  20380.
##  8 1100106          96.7  4.76    2.28      4.14 27.2  21148.
##  9 1100122          98.4  5.28    1.9       4.53 16.7  31210.
## 10 1100148         100    5.74    0         4.27  6.42 19687.
## # ℹ 5,559 more rows
```
…
### Juntando as bases de dados: Médio

<div class="panelset">
<div class="panel">
<div class="panel-name">left-join seguidos</div>

```r
left_join(
  ideb_medio, indicadores_medio, by = "id_municipio"
) %>% 
  left_join(pib_pc, by = "id_municipio")
```

```
## # A tibble: 5,557 × 7
##    id_municipio tx_aprov  ideb tx_aband hrs_aula   tdi pib_pc
##    <chr>           <dbl> <dbl>    <dbl>    <dbl> <dbl>  <dbl>
##  1 1100304          75.6  3.55     2.94     4.56  31.3 30848.
##  2 1200435          90    2.9      9.9      4.93  54.1 12526.
##  3 1300060          89.4  3        4.87     4     46.3  8689.
##  4 1300201          72.7  2.2     21.4      3.87  62.0  8469.
##  5 1300508          87.1  3.1      5.83     4.8   47.8  9653.
##  6 1300607          87.4  2.8      8        5.67  35.7  7951.
##  7 1300680          87.5  3.1     11.8      3.87  47.2  8230.
##  8 1300805          87.2  3.1      6.63     4.97  42.2  8659.
##  9 1300839          94.9  3.1      2.23     3.83  44.6 12846.
## 10 1301407          88.6  3.9      1.08     7.05  29.0  1409 
## # ℹ 5,547 more rows
```

</div>
<div class="panel">
<div class="panel-name">reduce</div>

```r
# PROGRAMAÇÃO FUNCIONAL - MAIS INDICADO! 
medio <- list(ideb_medio, indicadores_medio, pib_pc) %>% 
  reduce(left_join)

medio
```

```
## # A tibble: 5,557 × 7
##    id_municipio tx_aprov  ideb tx_aband hrs_aula   tdi pib_pc
##    <chr>           <dbl> <dbl>    <dbl>    <dbl> <dbl>  <dbl>
##  1 1100304          75.6  3.55     2.94     4.56  31.3 30848.
##  2 1200435          90    2.9      9.9      4.93  54.1 12526.
##  3 1300060          89.4  3        4.87     4     46.3  8689.
##  4 1300201          72.7  2.2     21.4      3.87  62.0  8469.
##  5 1300508          87.1  3.1      5.83     4.8   47.8  9653.
##  6 1300607          87.4  2.8      8        5.67  35.7  7951.
##  7 1300680          87.5  3.1     11.8      3.87  47.2  8230.
##  8 1300805          87.2  3.1      6.63     4.97  42.2  8659.
##  9 1300839          94.9  3.1      2.23     3.83  44.6 12846.
## 10 1301407          88.6  3.9      1.08     7.05  29.0  1409 
## # ℹ 5,547 more rows
```
…
