Análises Econométricas
…
---

### Selecionando Colunas:  &nbsp; `select()`

O primeiro argumento da função é a base de dados e os demais argumentos são os nomes das colunas que se quer selecionar. *Repare que não se coloca o nome da coluna entre aspas.*

```r
select(pinguins, species)
```

```
## # A tibble: 344 × 1
##    species
##    <chr>  
##  1 Adelie 
##  2 Adelie 
##  3 Adelie 
##  4 Adelie 
##  5 Adelie 
##  6 Adelie 
##  7 Adelie 
##  8 Adelie 
##  9 Adelie 
## 10 Adelie 
## # ℹ 334 more rows
```

<div class="my-header">Fonte: <a href="https://curso-r.github.io/main-r4ds-1/slides/04-manipulacao.html">Curso-R</a></div>

---

### Selecionando Colunas:  &nbsp; `select()`

Também é possível selecionar várias colunas.

```r
select(pinguins, species, sex, body_mass_g)
```

```
## # A tibble: 344 × 3
##    species sex    body_mass_g
##    <chr>   <chr>        <dbl>
##  1 Adelie  male          3750
##  2 Adelie  female        3800
##  3 Adelie  female        3250
##  4 Adelie  <NA>            NA
##  5 Adelie  female        3450
##  6 Adelie  male          3650
##  7 Adelie  female        3625
##  8 Adelie  male          4675
##  9 Adelie  <NA>          3475
## 10 Adelie  <NA>          4250
## # ℹ 334 more rows
```

<div class="my-header">Fonte: <a href="https://curso-r.github.io/main-r4ds-1/slides/04-manipulacao.html">Curso-R</a></div>

---

### Selecionando Colunas:  &nbsp; `select()`

O operador `:` é muito útil para selecionar colunas consecutivas.

```r
select(pinguins, island:body_mass_g)
```

```
## # A tibble: 344 × 5
##    island    bill_length_mm bill_depth_mm flipper_length_mm body_mass_g
##    <chr>              <dbl>         <dbl>             <dbl>       <dbl>
##  1 Torgersen           39.1          18.7               181        3750
##  2 Torgersen           39.5          17.4               186        3800
##  3 Torgersen           40.3          18                 195        3250
##  4 Torgersen           NA            NA                  NA          NA
##  5 Torgersen           36.7          19.3               193        3450
##  6 Torgersen           39.3          20.6               190        3650
##  7 Torgersen           38.9          17.8               181        3625
##  8 Torgersen           39.2          19.6               195        4675
##  9 Torgersen           34.1          18.1               193        3475
## 10 Torgersen           42            20.2               190        4250
## # ℹ 334 more rows
```
…
### Selecionando Colunas:  &nbsp; `select()`

O `dplyr` possui um conjunto de funções auxiliares úteis para a seleção de colunas.

- `starts_with()`: para colunas que começam com um texto padrão <br>
- `ends_with()`: para colunas que terminam com um texto padrão <br>
- `contains()`: para colunas que contêm um texto padrão <br>

```r
select(pinguins, ends_with("mm"))
```

```
## # A tibble: 344 × 3
##    bill_length_mm bill_depth_mm flipper_length_mm
##             <dbl>         <dbl>             <dbl>
##  1           39.1          18.7               181
##  2           39.5          17.4               186
##  3           40.3          18                 195
##  4           NA            NA                  NA
##  5           36.7          19.3               193
##  6           39.3          20.6               190
##  7           38.9          17.8               181
##  8           39.2          19.6               195
##  9           34.1          18.1               193
## 10           42            20.2               190
## # ℹ 334 more rows
```

<div class="my-header">Fonte: <a href="https://curso-r.github.io/main-r4ds-1/slides/04-manipulacao.html">Curso-R</a></div>

---

### Selecionando Colunas:  &nbsp; `select()`

A(s) coluna(s) pode(m) ser excluída(s) inserindo o caracter `-` na frente da(s) coluna(s).

```r
select(pinguins, -year)
```

```
## # A tibble: 344 × 7
##    species island    bill_length_mm bill_depth_mm flipper_length_mm body_mass_g
##    <chr>   <chr>              <dbl>         <dbl>             <dbl>       <dbl>
##  1 Adelie  Torgersen           39.1          18.7               181        3750
##  2 Adelie  Torgersen           39.5          17.4               186        3800
##  3 Adelie  Torgersen           40.3          18                 195        3250
##  4 Adelie  Torgersen           NA            NA                  NA          NA
##  5 Adelie  Torgersen           36.7          19.3               193        3450
##  6 Adelie  Torgersen           39.3          20.6               190        3650
##  7 Adelie  Torgersen           38.9          17.8               181        3625
##  8 Adelie  Torgersen           39.2          19.6               195        4675
##  9 Adelie  Torgersen           34.1          18.1               193        3475
## 10 Adelie  Torgersen           42            20.2               190        4250
## # ℹ 334 more rows
## # ℹ 1 more variable: sex <chr>
```

<div class="my-header">Fonte: <a href="https://curso-r.github.io/main-r4ds-1/slides/04-manipulacao.html">Curso-R</a></div>

---

### Selecionando Colunas:  &nbsp; `select()`

A(s) coluna(s) pode(m) ser excluída(s) inserindo o caracter `-` na frente do vetor de colunas.

```r
select(pinguins, -c(year, sex))
```

```
## # A tibble: 344 × 6
##    species island    bill_length_mm bill_depth_mm flipper_length_mm body_mass_g
##    <chr>   <chr>              <dbl>         <dbl>             <dbl>       <dbl>
##  1 Adelie  Torgersen           39.1          18.7               181        3750
##  2 Adelie  Torgersen           39.5          17.4               186        3800
##  3 Adelie  Torgersen           40.3          18                 195        3250
##  4 Adelie  Torgersen           NA            NA                  NA          NA
##  5 Adelie  Torgersen           36.7          19.3               193        3450
##  6 Adelie  Torgersen           39.3          20.6               190        3650
##  7 Adelie  Torgersen           38.9          17.8               181        3625
##  8 Adelie  Torgersen           39.2          19.6               195        4675
##  9 Adelie  Torgersen           34.1          18.1               193        3475
## 10 Adelie  Torgersen           42            20.2               190        4250
## # ℹ 334 more rows
```

<div class="my-header">Fonte: <a href="https://curso-r.github.io/main-r4ds-1/slides/04-manipulacao.html">Curso-R</a></div>

---

### Ordenando linhas: &nbsp; `arrange()`

Serve para ordenar as linhas. O primeiro argumento é a base de dados, e os demais argumentos são as colunas pelas quais serão ordenadas as linhas. Nesse exemplo, são ordenadas as linhas por *ordem crescente* da massa corporal dos pinguins.

```r
arrange(pinguins, body_mass_g)
```

```
## # A tibble: 344 × 8
##    species   island   bill_length_mm bill_depth_mm flipper_length_mm body_mass_g
##    <chr>     <chr>             <dbl>         <dbl>             <dbl>       <dbl>
##  1 Chinstrap Dream              46.9          16.6               192        2700
##  2 Adelie    Biscoe             36.5          16.6               181        2850
##  3 Adelie    Biscoe             36.4          17.1               184        2850
##  4 Adelie    Biscoe             34.5          18.1               187        2900
##  5 Adelie    Dream              33.1          16.1               178        2900
##  6 Adelie    Torgers…           38.6          17                 188        2900
##  7 Chinstrap Dream              43.2          16.6               187        2900
##  8 Adelie    Biscoe             37.9          18.6               193        2925
##  9 Adelie    Dream              37.5          18.9               179        2975
## 10 Adelie    Dream              37            16.9               185        3000
## # ℹ 334 more rows
## # ℹ 2 more variables: sex <chr>, year <dbl>
```

<div class="my-header">Fonte: <a href="https://curso-r.github.io/main-r4ds-1/slides/04-manipulacao.html">Curso-R</a></div>

---

### Ordenando linhas: &nbsp; `arrange()`

É possível ordenar de forma decrescente usando a função `desc()` como argumento da função `arrange()`. Aqui, são ordenadas as linhas da base por *ordem decrescente* da massa corporal dos pinguins.

```r
arrange(pinguins, desc(body_mass_g))
```

```
## # A tibble: 344 × 8
##    species island bill_length_mm bill_depth_mm flipper_length_mm body_mass_g
##    <chr>   <chr>           <dbl>         <dbl>             <dbl>       <dbl>
##  1 Gentoo  Biscoe           49.2          15.2               221        6300
##  2 Gentoo  Biscoe           59.6          17                 230        6050
##  3 Gentoo  Biscoe           51.1          16.3               220        6000
##  4 Gentoo  Biscoe           48.8          16.2               222        6000
##  5 Gentoo  Biscoe           45.2          16.4               223        5950
##  6 Gentoo  Biscoe           49.8          15.9               229        5950
##  7 Gentoo  Biscoe           48.4          14.6               213        5850
##  8 Gentoo  Biscoe           49.3          15.7               217        5850
##  9 Gentoo  Biscoe           55.1          16                 230        5850
## 10 Gentoo  Biscoe           49.5          16.2               229        5800
## # ℹ 334 more rows
## # ℹ 2 more variables: sex <chr>, year <dbl>
```

<div class="my-header">Fonte: <a href="https://curso-r.github.io/main-r4ds-1/slides/04-manipulacao.html">Curso-R</a></div>

---

### Ordenando linhas: &nbsp; `arrange()`

Também é possível ordenar segundo duas ou mais colunas. Por exemplo, as linhas da base serão ordenadas de forma decrescente para o comprimento do bico e crescente para a profundidade do bico dos pinguins.

```r
arrange(pinguins, desc(bill_length_mm), bill_depth_mm)
```

```
## # A tibble: 344 × 8
##    species   island bill_length_mm bill_depth_mm flipper_length_mm body_mass_g
##    <chr>     <chr>           <dbl>         <dbl>             <dbl>       <dbl>
##  1 Gentoo    Biscoe           59.6          17                 230        6050
##  2 Chinstrap Dream            58            17.8               181        3700
##  3 Gentoo    Biscoe           55.9          17                 228        5600
##  4 Chinstrap Dream            55.8          19.8               207        4000
##  5 Gentoo    Biscoe           55.1          16                 230        5850
##  6 Gentoo    Biscoe           54.3          15.7               231        5650
##  7 Chinstrap Dream            54.2          20.8               201        4300
##  8 Chinstrap Dream            53.5          19.9               205        4500
##  9 Gentoo    Biscoe           53.4          15.8               219        5500
## 10 Chinstrap Dream            52.8          20                 205        4550
## # ℹ 334 more rows
## # ℹ 2 more variables: sex <chr>, year <dbl>
```
…
<div class="my-header">Fonte: <a href="https://curso-r.github.io/main-r4ds-1/slides/04-manipulacao.html">Curso-R</a></div>

---

### Filtrando linhas: &nbsp; `filter()`

Filtra valores (linhas) de uma coluna da base. Aqui, foram filtradas as linhas que possuem comprimento da nadadeira superior à 140 mm.

```r
filter(pinguins, flipper_length_mm > 140)
```

```
## # A tibble: 342 × 8
##    species island    bill_length_mm bill_depth_mm flipper_length_mm body_mass_g
##    <chr>   <chr>              <dbl>         <dbl>             <dbl>       <dbl>
##  1 Adelie  Torgersen           39.1          18.7               181        3750
##  2 Adelie  Torgersen           39.5          17.4               186        3800
##  3 Adelie  Torgersen           40.3          18                 195        3250
##  4 Adelie  Torgersen           36.7          19.3               193        3450
##  5 Adelie  Torgersen           39.3          20.6               190        3650
##  6 Adelie  Torgersen           38.9          17.8               181        3625
##  7 Adelie  Torgersen           39.2          19.6               195        4675
##  8 Adelie  Torgersen           34.1          18.1               193        3475
##  9 Adelie  Torgersen           42            20.2               190        4250
## 10 Adelie  Torgersen           37.8          17.1               186        3300
## # ℹ 332 more rows
## # ℹ 2 more variables: sex <chr>, year <dbl>
```
…
---

### Filtrando linhas: &nbsp; `filter()`

É possível selecionar apenas as colunas da espécie e do comprimento da nadadeira, filtrando apenas aqueles com comprimento de nadadeira superior a 140 mm.

```r
pinguins %>% 
  select(species, flipper_length_mm) %>% 
  filter(flipper_length_mm > 140)
```

```
## # A tibble: 342 × 2
##    species flipper_length_mm
##    <chr>               <dbl>
##  1 Adelie                181
##  2 Adelie                186
##  3 Adelie                195
##  4 Adelie                193
##  5 Adelie                190
##  6 Adelie                181
##  7 Adelie                195
##  8 Adelie                193
##  9 Adelie                190
## 10 Adelie                186
## # ℹ 332 more rows
```
<div class="my-header">Fonte: <a href="https://curso-r.github.io/main-r4ds-1/slides/04-manipulacao.html">Curso-R</a></div>

---

### Filtrando linhas: &nbsp; `filter()`

Estendendo o filtro para duas ou mais colunas. Para isso, cada operação é separada por uma vírgula. O código abaixo retorna uma tabela com todos os pinguins da ilha de Torgersen com profundidade de bico maior que 15 mm.

```r
pinguins %>% 
  filter(island == "Torgersen", bill_depth_mm > 15)
```

```
## # A tibble: 51 × 8
##    species island    bill_length_mm bill_depth_mm flipper_length_mm body_mass_g
##    <chr>   <chr>              <dbl>         <dbl>             <dbl>       <dbl>
##  1 Adelie  Torgersen           39.1          18.7               181        3750
##  2 Adelie  Torgersen           39.5          17.4               186        3800
##  3 Adelie  Torgersen           40.3          18                 195        3250
##  4 Adelie  Torgersen           36.7          19.3               193        3450
##  5 Adelie  Torgersen           39.3          20.6               190        3650
##  6 Adelie  Torgersen           38.9          17.8               181        3625
##  7 Adelie  Torgersen           39.2          19.6               195        4675
##  8 Adelie  Torgersen           34.1          18.1               193        3475
##  9 Adelie  Torgersen           42            20.2               190        4250
## 10 Adelie  Torgersen           37.8          17.1               186        3300
## # ℹ 41 more rows
## # ℹ 2 more variables: sex <chr>, year <dbl>
```
<div class="my-header">Fonte: <a href="https://curso-r.github.io/main-r4ds-1/slides/04-manipulacao.html">Curso-R</a></div>

---

### Filtrando linhas: &nbsp; `filter()`

Também é possível realizar operações com as colunas da base dentro da função `filter()`. No exemplo abaixo, é devolvido uma tabela com os pinguins que possuem massa corporal maior que a média da massa corporal.

```r
pinguins %>% 
  filter(body_mass_g > mean(body_mass_g, na.rm = TRUE))
```

```
## # A tibble: 149 × 8
##    species island    bill_length_mm bill_depth_mm flipper_length_mm body_mass_g
##    <chr>   <chr>              <dbl>         <dbl>             <dbl>       <dbl>
##  1 Adelie  Torgersen           39.2          19.6               195        4675
##  2 Adelie  Torgersen           42            20.2               190        4250
##  3 Adelie  Torgersen           34.6          21.1               198        4400
##  4 Adelie  Torgersen           42.5          20.7               197        4500
##  5 Adelie  Dream               39.8          19.1               184        4650
##  6 Adelie  Dream               44.1          19.7               196        4400
##  7 Adelie  Dream               39.6          18.8               190        4600
##  8 Adelie  Biscoe              40.1          18.9               188        4300
##  9 Adelie  Biscoe              41.3          21.1               195        4400
## 10 Adelie  Torgersen           41.8          19.4               198        4450
## # ℹ 139 more rows
## # ℹ 2 more variables: sex <chr>, year <dbl>
```
<div class="my-header">Fonte: <a href="https://curso-r.github.io/main-r4ds-1/slides/04-manipulacao.html">Curso-R</a></div>

---

### Criando novas colunas: &nbsp; `mutate()`

Utilizado para modificar uma coluna já existente ou para criar uma nova coluna. O código a seguir divide os valores da coluna `bill_length_mm` por 10, alterando a unidade de medida dessa variável de milímetros (mm) para centímetros (cm).

```r
pinguins %>% 
  mutate(bill_length_mm = bill_length_mm/10)
```

```
## # A tibble: 344 × 8
##    species island    bill_length_mm bill_depth_mm flipper_length_mm body_mass_g
##    <chr>   <chr>              <dbl>         <dbl>             <dbl>       <dbl>
##  1 Adelie  Torgersen           3.91          18.7               181        3750
##  2 Adelie  Torgersen           3.95          17.4               186        3800
##  3 Adelie  Torgersen           4.03          18                 195        3250
##  4 Adelie  Torgersen          NA             NA                  NA          NA
##  5 Adelie  Torgersen           3.67          19.3               193        3450
##  6 Adelie  Torgersen           3.93          20.6               190        3650
##  7 Adelie  Torgersen           3.89          17.8               181        3625
##  8 Adelie  Torgersen           3.92          19.6               195        4675
##  9 Adelie  Torgersen           3.41          18.1               193        3475
## 10 Adelie  Torgersen           4.2           20.2               190        4250
## # ℹ 334 more rows
## # ℹ 2 more variables: sex <chr>, year <dbl>
```
<div class="my-header">Fonte: <a href="https://curso-r.github.io/main-r4ds-1/slides/04-manipulacao.html">Curso-R</a></div>

---

### Criando novas colunas: &nbsp; `mutate()`

Também é possível criar a variável anterior em uma nova coluna, mantendo a variável original. A coluna `bill_length_cm` é colocada no final da tabela.

```r
pinguins %>% 
  mutate(bill_length_cm = bill_length_mm/10)
```

```
## # A tibble: 344 × 9
##    species island    bill_length_mm bill_depth_mm flipper_length_mm body_mass_g
##    <chr>   <chr>              <dbl>         <dbl>             <dbl>       <dbl>
##  1 Adelie  Torgersen           39.1          18.7               181        3750
##  2 Adelie  Torgersen           39.5          17.4               186        3800
##  3 Adelie  Torgersen           40.3          18                 195        3250
##  4 Adelie  Torgersen           NA            NA                  NA          NA
##  5 Adelie  Torgersen           36.7          19.3               193        3450
##  6 Adelie  Torgersen           39.3          20.6               190        3650
##  7 Adelie  Torgersen           38.9          17.8               181        3625
##  8 Adelie  Torgersen           39.2          19.6               195        4675
##  9 Adelie  Torgersen           34.1          18.1               193        3475
## 10 Adelie  Torgersen           42            20.2               190        4250
## # ℹ 334 more rows
## # ℹ 3 more variables: sex <chr>, year <dbl>, bill_length_cm <dbl>
```
…
